@startuml
skinparam shadowing false
skinparam classBorderThickness .5
skinparam monochrome true
skinparam defaultFontName "Verdana"
skinparam defaultFontSize 14
skinparam sequence {
   ParticipantBackgroundColor transparent
   ParticipantFontSize 16
   ActorFontColor blue
   ActorFontSize 16
   ActorFontName blue }

Participant Test
Participant "ctrl:AddMemberToGroupController"
Participant "srv:AddMemberToGroupService"
Participant "groupRepo:GroupRepository"
Participant "group:Group"
Participant "AddMemberRequestAssembler"
Participant "addMemberEntryDTO:AddMemberEntryDTO"
Participant "GroupAssembler"
activate Test


Test -> "ctrl:AddMemberToGroupController": addMember(groupDesc,\nPersonEmail)
activate "ctrl:AddMemberToGroupController" #white

"ctrl:AddMemberToGroupController" -> "AddMemberRequestAssembler" : addMemberMapToDTO(groupDesc, personEmail)
activate "AddMemberRequestAssembler" #white

create "addMemberEntryDTO:AddMemberEntryDTO"
"AddMemberRequestAssembler" -> "addMemberEntryDTO:AddMemberEntryDTO" : create

"AddMemberRequestAssembler" --> "ctrl:AddMemberToGroupController" : addMemberEntryDTO
deactivate "AddMemberRequestAssembler"

"ctrl:AddMemberToGroupController" -> "srv:AddMemberToGroupService" : addMember(addMemberEntryDTO)
activate "srv:AddMemberToGroupService" #white

"srv:AddMemberToGroupService" -> "groupRepo:GroupRepository" : findByID(addMemberEntryDTO.getGroupID())
activate "groupRepo:GroupRepository" #white

"groupRepo:GroupRepository" --> "srv:AddMemberToGroupService" : group
deactivate "groupRepo:GroupRepository"

"srv:AddMemberToGroupService" -> "group:Group": addMember(addMemberEntryDTO.getPersonID())

"srv:AddMemberToGroupService" -> "GroupAssembler" : mapToDTO(group)
activate "GroupAssembler" #white

create "groupDTO:GroupDTO"
"GroupAssembler" -> "groupDTO:GroupDTO" : create

"GroupAssembler" --> "srv:AddMemberToGroupService" : groupDTO
deactivate "GroupAssembler"

"srv:AddMemberToGroupService" --> "ctrl:AddMemberToGroupController" : groupDTO
deactivate "srv:AddMemberToGroupService"

"ctrl:AddMemberToGroupController" --> Test : groupDTO
deactivate "ctrl:AddMemberToGroupController"
deactivate Test #white
@enduml