@startuml
skinparam shadowing false
skinparam classBorderThickness .5
skinparam monochrome true
skinparam defaultFontName "Verdana"
skinparam defaultFontSize 14
skinparam sequence {
   ParticipantBackgroundColor transparent
   ParticipantFontSize 16
   ActorFontSize 16
}

autonumber

Participant "IntegrationTest" #WHITE
Participant "Spring \nApplication"
Participant "De /nSerializer"
Participant "info:AddMember \nRequestInfoDTO"
Participant "ctrl:AddMember \nToGroupController"
Participant "srv:AddMember \nToGroupService"
Participant "srv:AddMember \nToGroupService"
Participant "groupRepo: \nGroupRepository"
Participant "group: \nGroup"
Participant "AddMember \nRequestAssembler"
Participant "Group \nAssembler"
Participant "requestDTO: \nAddMemberRequestDTO"
Participant "groupDTO: \nGroupDTO"
Participant "AddMemberResponse \nDTOAssembler"
Participant "groupRespDTO: \nGroupResponseDTO"


activate IntegrationTest #white

"IntegrationTest" -> "Spring \nApplication": POST\n /groups/"Family"/\nmembers/"ana@gmail.com"
activate "Spring \nApplication" #white

"Spring \nApplication" -> "De /nSerializer" : deserialize("groupDesc":"Family", \n"personEmail":"ana@gmail.com")
activate "De /nSerializer" #white

create "info:AddMember \nRequestInfoDTO"
"De /nSerializer" -> "info:AddMember \nRequestInfoDTO" : create (groupDesc,\nPersonEmail)
deactivate "De /nSerializer"

"Spring \nApplication" -> "ctrl:AddMember \nToGroupController" : addMember(info)
activate "ctrl:AddMember \nToGroupController" #white

"ctrl:AddMember \nToGroupController" -> "AddMember \nRequestAssembler" : addMemberMapToDTO(info.getGroupDescription(),\ninfo.getPersonEmail())
activate "AddMember \nRequestAssembler" #white

create "requestDTO: \nAddMemberRequestDTO"
"AddMember \nRequestAssembler" -> "requestDTO: \nAddMemberRequestDTO" : create

"AddMember \nRequestAssembler" --> "ctrl:AddMember \nToGroupController" : requestDTO
deactivate "AddMember \nRequestAssembler"

"ctrl:AddMember \nToGroupController" -> "srv:AddMember \nToGroupService" : addMember(requestDTO)
activate "srv:AddMember \nToGroupService" #white

ref over "groupRepo: \nGroupRepository" : groupRepo.save(group)

"srv:AddMember \nToGroupService" -> "groupRepo: \nGroupRepository" : findByID(requestDTO.getGroupID())
activate "groupRepo: \nGroupRepository" #white

"groupRepo: \nGroupRepository" --> "srv:AddMember \nToGroupService" : group
deactivate "groupRepo: \nGroupRepository"

"srv:AddMember \nToGroupService" -> "group: \nGroup": addMember(requestDTO.getPersonID())

"srv:AddMember \nToGroupService" -> "Group \nAssembler" : mapToDTO(group)
activate "Group \nAssembler" #white

create "groupDTO: \nGroupDTO"
"Group \nAssembler" -> "groupDTO: \nGroupDTO" : create

"Group \nAssembler" --> "srv:AddMember \nToGroupService" : groupDTO
deactivate "Group \nAssembler"

"srv:AddMember \nToGroupService" --> "ctrl:AddMember \nToGroupController" : groupDTO
deactivate "srv:AddMember \nToGroupService"

"ctrl:AddMember \nToGroupController" -> "AddMemberResponse \nDTOAssembler" : mapToGroupResponseDTO(groupDTO.getGroupID(), groupDTO.getResponsibles(), groupDTO.getMembers(), groupDTO.getCategories(), groupDTO.getCreationDate())
activate "AddMemberResponse \nDTOAssembler" #white

create "groupRespDTO: \nGroupResponseDTO"
"AddMemberResponse \nDTOAssembler" -> "groupRespDTO: \nGroupResponseDTO" : create

"AddMemberResponse \nDTOAssembler" --> "ctrl:AddMember \nToGroupController" : groupRespDTO
deactivate "AddMemberResponse \nDTOAssembler"

"ctrl:AddMember \nToGroupController" --> "Spring \nApplication" : ResponseEntity(groupRespDTO, \nHttpStatus.OK)
deactivate "ctrl:AddMember \nToGroupController"

"Spring \nApplication" -> "De /nSerializer" : serialize(ResponseEntity(groupRespDTO, \nHttpStatus.OK))
activate "De /nSerializer" #white

"De /nSerializer" --> "Spring \nApplication" : HttpResponse
deactivate "De /nSerializer"

"Spring \nApplication" --> "IntegrationTest" : HttpResponse
deactivate "Spring \nApplication"
deactivate "IntegrationTest" #white

@enduml