@startuml
skinparam shadowing false
skinparam classBorderThickness .5
skinparam monochrome true
skinparam defaultFontName "Verdana"
skinparam defaultFontSize 14

hide empty methods
left to right direction

skinparam linetype polyline

class Account{
    name: String
    description : String
    --
    equals()
    hashCode()
    toString()
}
class AccountList{
    accounts : Set<Account>
    --
    addAccount()
}
class Category{
    name : String
    --
    equals()
    hashCode()
    toString()
}
class CategoryList{
    categories : Set<Category>
    --
    addCategory()
}
class Group{
    creationDate : String
    description : String
    --
    addMember()
    isMember()
    isFamily()
    addAccount()
    getMembers()
    getAccountTransactionsInPeriod()
    getTransactionsInPeriod()
    addCategory()
    getBalanceInPeriod()
    getBalanceInPeriod()
    addTransaction()
    isOwner()
    addScheduledTask()
}
class GroupList{
    groups : Set<Group>
}
class Ledger{
    transactions : Set<Transaction>
    }
enum Periodicity{
    DAILY
    WORKDAYS
    WEEKLY
    MONTHLY
}
class Person  {
    name : String
    birthDate : String
    birthPlace : String
}
class Scheduler{
    tasks : Set<ScheduledTask>
}
class ScheduledTask{
    amount : double
    description : String
    category : Category
    debit : Account
    credit : Account
    aTransactionType : TransactionType
    aPeriodType : Periodicity
}
class Transaction{
    description : String
    amount: Double
    date: LocalDateTime
    type: TransactionType
}
enum TransactionType{
    CREDIT
    DEBIT
}
AccountList"1"--"*"Account
Account"1"--"*"Scheduler:credit
Account"1"--"*"Scheduler:debit

CategoryList"1"--"*"Category
Category"1"--"*"Scheduler:used by

GroupList "1" -- "*" Group : contains
Group "0..1" -- "1" Ledger : creates
Group"1"--"*"CategoryList:collects
Group"*"--"1"Scheduler:owns

Ledger "1 " --"*" Transaction: registers

Person "0..1" -- "1" Ledger : creates
Person "*"-- "*"Group: is member
Person "1..*"-- "*"Group: is owner
Person "1" -- "has"Person: mother
Person "1" -- Person: father
Person "*" -- Person: siblings
Person"*"--"1"AccountList:owns
Person"*"--"1"CategoryList:owns
Person"*"--"1"Scheduler:owns

Scheduler "*" --"1" ScheduledTask: collects

ScheduledTask "*" --"1" Periodicity: uses

Transaction"*" --"1" TransactionType
Transaction"*" --"1" Account: < credit
Transaction "*" --"1" Account: < debit
Transaction "*" --"1" Category: belongs to

@enduml