@startuml
skinparam shadowing true
skinparam classBorderThickness .7
skinparam monochrome true
skinparam defaultFontName "Verdana"
skinparam defaultFontSize 12
skinparam sequence {
   ParticipantFontSize 14
   ActorFontSize 15
}

note over "srv:IsSiblingPersonService" #white
   Continues through
    next Diagram
end note

autonumber

activate IntegrationTest #white
Participant IntegrationTest
Participant "Spring Application"
Participant "Deserializer"
Participant "ctrl:IsSibling\nPersonController"
Participant "info:IsSibling\nRequestInfoDTO"
Participant "IsSiblingRequestDTOAssembler"
Participant "requestDTO:IsSiblingRequestDTO"
Participant "srv:IsSiblingPersonService"

"IntegrationTest" -> "Spring Application": POST\n /persons/nuno@family.com/ \n siblings/tarcisio@family.com
activate "Spring Application" #white

autonumber 1.1
"Spring Application" -> "Deserializer": deserialize(("personID1":\n"tarcisio@family.com", \n"personID2":"nuno@family.com"))
activate "Deserializer" #white

autonumber 1.1.1
create "info:IsSibling\nRequestInfoDTO"
"Deserializer" -> "info:IsSibling\nRequestInfoDTO" : create (personEmail1, \npersonEmail2)
deactivate "Deserializer"

autonumber 1.2
"Spring Application" -> "ctrl:IsSibling\nPersonController" : isSibling(info)
activate "ctrl:IsSibling\nPersonController" #white

autonumber 2.1
"ctrl:IsSibling\nPersonController" -> "IsSiblingRequestDTOAssembler" : mapToDTO(info.getPersonID1(),\ninfo.getPersonID2())
activate "IsSiblingRequestDTOAssembler" #white

autonumber 2.1.1
create "requestDTO:IsSiblingRequestDTO"
"IsSiblingRequestDTOAssembler" -> "requestDTO:IsSiblingRequestDTO" : create(personEmail1,\npersonEmail2)
deactivate "IsSiblingRequestDTOAssembler" #white

autonumber 2.2
"ctrl:IsSibling\nPersonController" -> "srv:IsSiblingPersonService": isSibling(requestDTO:IsSiblingRequestDTO)
activate "srv:IsSiblingPersonService"

"srv:IsSiblingPersonService" --> "ctrl:IsSibling\nPersonController": TRUE
deactivate

"ctrl:IsSibling\nPersonController" --> "Spring Application": HttpResponse
deactivate

"Spring Application" --> IntegrationTest: HttpResponse
deactivate
deactivate IntegrationTest

@enduml
