@startuml
skinparam shadowing false
skinparam classBorderThickness .5
skinparam monochrome true
skinparam defaultFontName "Verdana"
skinparam defaultFontSize 14

participant Test #white

activate Test #white
create "ctrl:us011Controller"
Test -> "ctrl:us011Controller" : create
Test -> "ctrl:us011Controller": ctrl.getTransactionsInPeriod(\n initialDate, \n endDate, \n maria)
activate "ctrl:us011Controller" #white
"ctrl:us011Controller" -> "maria:Person": maria.getTransactionsInPeriod(\n initialDate, endDate)
deactivate "ctrl:us011Controller"
activate "maria:Person" #white
"maria:Person" -> "ledger:Ledger": ledger.getTransactionsInPeriod\n(initialDate, endDate)
deactivate "maria:Person"
activate "ledger:Ledger" #white
create "ledger:Ledger"
deactivate "ledger:Ledger"
deactivate Test

@enduml